iter	Logloss
0	0.6864714414
1	0.6809790013
2	0.6761574955
3	0.6704208502
4	0.6647161494
5	0.6604032457
6	0.6554658479
7	0.6502158842
8	0.645200033
9	0.6410385407
10	0.6356298569
11	0.6306012606
12	0.6255959044
13	0.6208960841
14	0.6159460134
15	0.6112044397
16	0.6069197207
17	0.6030482665
18	0.598350125
19	0.5951791724
20	0.590982708
21	0.5874983976
22	0.5838446518
23	0.5797159574
24	0.5758394166
25	0.5724719622
26	0.5693390185
27	0.565638374
28	0.5627414921
29	0.5598834895
30	0.5564813862
31	0.5530098854
32	0.5509148929
33	0.5485630285
34	0.5462375054
35	0.5435150715
36	0.5405445209
37	0.5381309986
38	0.5354257712
39	0.5323894387
40	0.5299987378
41	0.527262179
42	0.5245438345
43	0.5216638783
44	0.5190028618
45	0.5167258088
46	0.5150032482
47	0.5135276563
48	0.5118937132
49	0.5097437237
50	0.5072582805
51	0.5050244797
52	0.5032727801
53	0.5009685833
54	0.4991228951
55	0.4975035845
56	0.4953514011
57	0.4936836812
58	0.4925377097
59	0.4903246665
60	0.4887486834
61	0.4866966271
62	0.4849745821
63	0.4829835885
64	0.4814677824
65	0.4798344878
66	0.4781736949
67	0.4767158782
68	0.4746857511
69	0.4729854742
70	0.47154076
71	0.4700755479
72	0.468785978
73	0.4670859292
74	0.4652004689
75	0.4635379457
76	0.4624748115
77	0.4611925811
78	0.4598189111
79	0.4588012103
80	0.4574615359
81	0.456159728
82	0.4552922481
83	0.4541515819
84	0.4533534966
85	0.4521198801
86	0.4513098648
87	0.4500985561
88	0.4488371919
89	0.4478751563
90	0.4465358529
91	0.4452596276
92	0.4440095002
93	0.4428485912
94	0.44197443
95	0.4408406028
96	0.4398508468
97	0.4385590292
98	0.4374752765
99	0.4364218713
100	0.4354769618
101	0.4345006968
102	0.4331708872
103	0.4322472223
104	0.4313700035
105	0.4303867721
106	0.4294627211
107	0.4286105782
108	0.4281022485
109	0.4269782045
110	0.4261072016
111	0.4255350988
112	0.4251887055
113	0.4243316064
114	0.4234777771
115	0.4228031379
116	0.4222771825
117	0.4212600683
118	0.4204449417
119	0.4199666282
120	0.4193534622
121	0.4187894493
122	0.4182129162
123	0.417571916
124	0.4171752618
125	0.4165123312
126	0.4156747864
127	0.4150269741
128	0.4142843618
129	0.4134874709
130	0.412670125
131	0.4122221153
132	0.4114878977
133	0.4107556173
134	0.4102177132
135	0.4095405029
136	0.4089978919
137	0.4084255618
138	0.4080903801
139	0.4078181039
140	0.4071727559
141	0.4066346478
142	0.4061235046
143	0.405653712
144	0.4049626096
145	0.4046790112
146	0.4042835965
147	0.4038096575
148	0.4033144654
149	0.4030267436
150	0.4028191645
151	0.4025664135
152	0.4020097984
153	0.4013806361
154	0.4009980791
155	0.4005857796
156	0.4000921905
157	0.3997197857
158	0.3992931611
159	0.3988679942
160	0.3985224552
161	0.3980661505
162	0.397366582
163	0.3966930627
164	0.3963028077
165	0.395871877
166	0.3954556202
167	0.3950578071
168	0.394902301
169	0.3945107796
170	0.3941105315
171	0.3938864289
172	0.3935661287
173	0.3932110629
174	0.392677766
175	0.3922452241
176	0.3919501734
177	0.3914150361
178	0.3911394104
179	0.3907329866
180	0.3902955507
181	0.3899480684
182	0.3894058726
183	0.3891490403
184	0.38876896
185	0.3884140002
186	0.3878102457
187	0.3875870243
188	0.3874291338
189	0.3869310873
190	0.3865776707
191	0.386217404
192	0.3858758788
193	0.3853842336
194	0.3848681622
195	0.3846079909
196	0.3842777883
197	0.3840375545
198	0.3836853307
199	0.3833829371
200	0.3829875775
201	0.3826174326
202	0.3821952968
203	0.3817812705
204	0.3814195181
205	0.3809679633
206	0.3806691613
207	0.3803911069
208	0.3799806837
209	0.3797346705
210	0.3794325663
211	0.379011099
212	0.3785567417
213	0.37839052
214	0.378046403
215	0.3777232625
216	0.3775663677
217	0.3772508995
218	0.3771523026
219	0.3770399043
220	0.3767210764
221	0.3765716728
222	0.3762418964
223	0.3757676873
224	0.3754915768
225	0.3752954108
226	0.3749230386
227	0.3746781429
228	0.3744445204
229	0.3741688423
230	0.3739092029
231	0.3736322864
232	0.3732746316
233	0.3731077446
234	0.372853498
235	0.3726166555
236	0.3723183343
237	0.3722048703
238	0.3718151419
239	0.3716550333
240	0.3714077167
241	0.3711831875
242	0.3709698763
243	0.3706241552
244	0.3703973412
245	0.3702051518
246	0.3700551645
247	0.3697731884
248	0.3693636389
249	0.3692976471
250	0.3689953321
251	0.3687664986
252	0.3685228382
253	0.3683549951
254	0.3681496152
255	0.3677925099
256	0.3675740606
257	0.3674895182
258	0.3674631598
259	0.3672571024
260	0.3670669271
261	0.3667906807
262	0.3667000936
263	0.3664218483
264	0.3662198124
265	0.3660264543
266	0.3659504769
267	0.365587288
268	0.3652915982
269	0.3649975541
270	0.3648903156
271	0.3645852018
272	0.3642774034
273	0.3640878232
274	0.3638165332
275	0.3636481714
276	0.3634188301
277	0.3632775204
278	0.3630553697
279	0.362888774
280	0.3627110887
281	0.3624894644
282	0.3622732008
283	0.3621108923
284	0.3619710034
285	0.3618369377
286	0.3614907751
287	0.3613173149
288	0.3610779364
289	0.3609233888
290	0.3607596134
291	0.3603851866
292	0.3599743083
293	0.3598892176
294	0.359728038
295	0.3596616672
296	0.3592853592
297	0.3590271272
298	0.3588091791
299	0.3586155737
300	0.3583186682
301	0.3581619248
302	0.357884982
303	0.3576056982
304	0.3575230558
305	0.3572684722
306	0.3570892611
307	0.3569738786
308	0.3568094704
309	0.3566850071
310	0.3564372135
311	0.3562050114
312	0.3560288592
313	0.3558861547
314	0.3556893338
315	0.3554756241
316	0.3553037472
317	0.35520167
318	0.3550212482
319	0.3548173989
320	0.3546076304
321	0.3544772198
322	0.3542949304
323	0.3540511588
324	0.353937359
325	0.3539109697
326	0.353660482
327	0.3535450134
328	0.3533618096
329	0.3532523284
330	0.3530779854
331	0.3528533309
332	0.3526365906
333	0.3525270164
334	0.3523014323
335	0.3519736172
336	0.3518293342
337	0.3515770096
338	0.3513998323
339	0.3512243952
340	0.3509784401
341	0.3507196695
342	0.3505517496
343	0.3502318973
344	0.3500234325
345	0.3497350853
346	0.3494944357
347	0.3493531731
348	0.3492871916
349	0.3491331097
350	0.3488759397
351	0.3487166237
352	0.348596303
353	0.3484489861
354	0.3484060529
355	0.3483511214
356	0.3482404463
357	0.3482026115
358	0.3480384139
359	0.3477500614
360	0.3475768942
361	0.3474252922
362	0.3473733448
363	0.3472873968
364	0.3472081173
365	0.3470794439
366	0.3469453621
367	0.3468801676
368	0.3468637357
369	0.3468091205
370	0.3467653685
371	0.3464983702
372	0.3464142817
373	0.346299655
374	0.3461874814
375	0.3459501654
376	0.3456616042
377	0.345562694
378	0.3454810679
379	0.3452451466
380	0.3451456541
381	0.3450464884
382	0.3449438371
383	0.3449201897
384	0.3447634979
385	0.3445767655
386	0.344463925
387	0.344414544
388	0.3443247766
389	0.3441639401
390	0.3440559441
391	0.3438280383
392	0.3436980544
393	0.3433562595
394	0.3430808167
395	0.3430313034
396	0.3429723332
397	0.3427667069
398	0.3425329038
399	0.3423584957
400	0.3421921388
401	0.3421154312
402	0.3419938398
403	0.3419055215
404	0.3418060578
405	0.3417234007
406	0.3416080368
407	0.3412883038
408	0.3411270603
409	0.341060385
410	0.3409340022
411	0.3408407526
412	0.3406841614
413	0.3406612249
414	0.3406353972
415	0.3405857923
416	0.34048872
417	0.3402971161
418	0.3401269604
419	0.3398664683
420	0.33953148
421	0.3394288307
422	0.3393816168
423	0.3391529011
424	0.3389517632
425	0.3388055414
426	0.3386611539
427	0.3385101442
428	0.3382970046
429	0.3382514687
430	0.3381253725
431	0.3378022281
432	0.3377114893
433	0.3375664825
434	0.3374286174
435	0.3374010696
436	0.3372757621
437	0.3371734186
438	0.3370990293
439	0.3369157273
440	0.3367239949
441	0.3365231273
442	0.3364080525
443	0.3362766637
444	0.3362327044
445	0.3361106809
446	0.3361023852
447	0.336033807
448	0.3358481203
449	0.3358201888
450	0.3356913609
451	0.3355780765
452	0.3354746447
453	0.3353633507
454	0.3352869057
455	0.3351409164
456	0.3349979039
457	0.334875468
458	0.3347484226
459	0.3346986087
460	0.3344828607
461	0.3341551013
462	0.3339948223
463	0.3338042597
464	0.3337197128
465	0.3336352125
466	0.3335318816
467	0.3334524743
468	0.3333384963
469	0.3331731615
470	0.3329486382
471	0.3328474996
472	0.3327795438
473	0.3326353619
474	0.3324828816
475	0.3324039126
476	0.3321999216
477	0.3321344099
478	0.3320709625
479	0.3319003573
480	0.3317282095
481	0.3316872948
482	0.3315296995
483	0.3314673438
484	0.3314466297
485	0.3313943991
486	0.3312702361
487	0.3311901989
488	0.3310145071
489	0.3308990007
490	0.3308490526
491	0.3307931407
492	0.3306549644
493	0.3305905789
494	0.3304047589
495	0.3302719822
496	0.3301295637
497	0.3298706994
498	0.329783204
499	0.3296731569
500	0.3294920637
501	0.3294096607
502	0.3292828082
503	0.329270052
504	0.3292359479
505	0.3289916385
506	0.3289182845
507	0.3288257718
508	0.3287792263
509	0.3287140472
510	0.3286368822
511	0.328509
512	0.3283696926
513	0.3282612478
514	0.3281226714
515	0.3280178347
516	0.3277830894
517	0.3276891861
518	0.3275949696
519	0.3274999963
520	0.327476953
521	0.3272924058
522	0.3272068995
523	0.3270833
524	0.3270811691
525	0.3269242394
526	0.3269114244
527	0.3267863861
528	0.3266783725
529	0.3265854326
530	0.3264266317
531	0.3263487835
532	0.326245979
533	0.326159301
534	0.3261227064
535	0.3260611431
536	0.3257720446
537	0.325608496
538	0.3255168896
539	0.3254207446
540	0.3252816821
541	0.3252015467
542	0.3251379419
543	0.3250175392
544	0.324941679
545	0.3247986529
546	0.324612711
547	0.324381512
548	0.3242978199
549	0.3241559524
550	0.3241102128
551	0.3240708667
552	0.3239688471
553	0.3239107312
554	0.3238490217
555	0.3237804503
556	0.3235824524
557	0.323537137
558	0.3234441232
559	0.3234033786
560	0.323363747
561	0.3232451443
562	0.3231400178
563	0.3230765985
564	0.3228511191
565	0.3227271737
566	0.3226438843
567	0.3225736894
568	0.3225206394
569	0.322417273
570	0.3222856688
571	0.3220055038
572	0.3219149684
573	0.3217158491
574	0.3216341613
575	0.3216140768
576	0.3214743135
577	0.3214154311
578	0.3213157862
579	0.3212527601
580	0.3211879769
581	0.3211002577
582	0.3209484275
583	0.3208364936
584	0.3208087379
585	0.320675706
586	0.320451358
587	0.3204181657
588	0.3203500831
589	0.3203011126
590	0.3201232784
591	0.3200639812
592	0.319949381
593	0.3198597508
594	0.3197025084
595	0.3196221892
596	0.3193671704
597	0.3192221576
598	0.3191558012
599	0.3190908349
600	0.3189796814
601	0.3189480732
602	0.3187920621
603	0.3187907524
604	0.318678491
605	0.3185356503
606	0.318475752
607	0.3183788023
608	0.3183037874
609	0.3181696901
610	0.318083641
611	0.3179973041
612	0.3177966688
613	0.3177318589
614	0.317665932
615	0.3174886393
616	0.3174213271
617	0.3172404555
618	0.3171191141
619	0.3170616251
620	0.316993458
621	0.3169029007
622	0.3168535419
623	0.3167320735
624	0.3165808437
625	0.3165168094
626	0.3164641179
627	0.3163731601
628	0.3161961803
629	0.3160595083
630	0.315949563
631	0.3158556039
632	0.3157553469
633	0.3157095295
634	0.3155224708
635	0.3154098302
636	0.3153528257
637	0.3152740581
638	0.3151796135
639	0.3149107043
640	0.3147754809
641	0.3146993605
642	0.314509283
643	0.3143235345
644	0.3141996141
645	0.3141536957
646	0.3140875315
647	0.3140331917
648	0.313873009
649	0.3137950557
650	0.3137768367
651	0.3136411003
652	0.3135348401
653	0.3134523874
654	0.3133654563
655	0.3131709329
656	0.3130822362
657	0.3130054939
658	0.3128947314
659	0.3126593117
660	0.3125243904
661	0.3121900692
662	0.3121789591
663	0.3121300385
664	0.3120290527
665	0.311953335
666	0.3119009029
667	0.3118309142
668	0.3117340026
669	0.31164083
670	0.311502826
671	0.3113078444
672	0.3112037943
673	0.3111192909
674	0.3110660057
675	0.3109617421
676	0.3109112381
677	0.3108004895
678	0.3106823132
679	0.3105215293
680	0.3103213231
681	0.3102414808
682	0.3101748565
683	0.3100969498
684	0.3100553208
685	0.3100022012
686	0.3098979745
687	0.3098040965
688	0.3097223065
689	0.3095231003
690	0.3094332075
691	0.309079831
692	0.3089621794
693	0.3088781135
694	0.3085945239
695	0.3085468402
696	0.30838847
697	0.3082672547
698	0.3082262357
699	0.308165766
700	0.3079988919
701	0.3079230847
702	0.30785974
703	0.307767645
704	0.3076558279
705	0.307595659
706	0.3073208869
707	0.3071471303
708	0.3070622143
709	0.3070169325
710	0.3069289463
711	0.3068547303
712	0.3065804224
713	0.3065338731
714	0.3064338954
715	0.3064011075
716	0.3063598079
717	0.3063013956
718	0.3062439908
719	0.3061905097
720	0.3060216049
721	0.3058897959
722	0.3057695518
723	0.3056629124
724	0.3053980443
725	0.3052605564
726	0.3051198413
727	0.3050227613
728	0.3049100784
729	0.3048172417
730	0.3047109184
731	0.304654823
732	0.3045862206
733	0.3044741478
734	0.3043376513
735	0.304105804
736	0.3040312577
737	0.3040258159
738	0.3039667655
739	0.3038936996
740	0.3038218061
741	0.3037686474
742	0.3037613937
743	0.3036534517
744	0.3036107089
745	0.3035596306
746	0.3034806773
747	0.3033408352
748	0.3033125452
749	0.3032676103
750	0.3032398448
751	0.3031779977
752	0.3031526141
753	0.3029631141
754	0.3028993512
755	0.3027585346
756	0.3026289974
757	0.3024211486
758	0.3023680938
759	0.3022525423
760	0.3022343936
761	0.3021627446
762	0.3020303114
763	0.3019426843
764	0.301821981
765	0.3017341124
766	0.3016373327
767	0.3015670973
768	0.3014578415
769	0.3013427777
770	0.3012540187
771	0.3011970912
772	0.3011492338
773	0.3011126181
774	0.3010043443
775	0.3009490649
776	0.3008520699
777	0.3007170572
778	0.3006643823
779	0.300421755
780	0.3003462242
781	0.3003015034
782	0.3001612488
783	0.3000450711
784	0.2999863335
785	0.2999344826
786	0.2998897966
787	0.2998589757
788	0.2997597249
789	0.29962273
790	0.2995668423
791	0.2994652665
792	0.2993336755
793	0.2992938113
794	0.2991721234
795	0.2991025795
796	0.2989182677
797	0.298860228
798	0.2987249653
799	0.2986798218
800	0.2985664838
801	0.2982755181
802	0.2982330828
803	0.2981105955
804	0.297986113
805	0.2978643121
806	0.2977742822
807	0.2976289075
808	0.2975973002
809	0.2974276119
810	0.2971221632
811	0.2970598922
812	0.296981794
813	0.2969409935
814	0.2969119738
815	0.2966278365
816	0.2965380896
817	0.2964887875
818	0.2963798172
819	0.2962546684
820	0.2960906632
821	0.2959355185
822	0.2958806
823	0.2958520592
824	0.2958099724
825	0.2956265066
826	0.2955036615
827	0.2954127218
828	0.2953410947
829	0.2952182182
830	0.2951321044
831	0.2950714232
832	0.2949028781
833	0.2947999155
834	0.2945915795
835	0.2944558736
836	0.2943049494
837	0.2941842428
838	0.2939436783
839	0.2937948406
840	0.2937130406
841	0.2936208496
842	0.2935010033
843	0.2932721072
844	0.2930842852
845	0.2930369863
846	0.2928335606
847	0.292726244
848	0.2925991986
849	0.2924312707
850	0.2923004521
851	0.292128452
852	0.2920806545
853	0.2920411418
854	0.2919625863
855	0.2918461326
856	0.2916103226
857	0.2915026802
858	0.2913186022
859	0.2911907827
860	0.2911253526
861	0.2910523666
862	0.2909961581
863	0.2908304871
864	0.2906329356
865	0.290562391
866	0.2904439991
867	0.2903653782
868	0.2902872106
869	0.2902246004
870	0.2901618491
871	0.2899630403
872	0.2899435667
873	0.2899315053
874	0.2898536123
875	0.2898042031
876	0.2897476448
877	0.2897195905
878	0.2894514795
879	0.2893159809
880	0.2891196408
881	0.2890747369
882	0.2889347802
883	0.2888828117
884	0.2888004875
885	0.288717829
886	0.2886812859
887	0.2886259912
888	0.2885078047
889	0.2883759434
890	0.2882352122
891	0.2881842274
892	0.2878601341
893	0.2877499602
894	0.2876204023
895	0.2875410552
896	0.2873625498
897	0.2872602517
898	0.2871792915
899	0.2871100945
900	0.2870479256
901	0.2869418148
902	0.2868670541
903	0.2868001143
904	0.2867064076
905	0.2865775336
906	0.2864822716
907	0.2862303578
908	0.2861549001
909	0.2860748015
910	0.2859257712
911	0.2857804501
912	0.2857095
913	0.2856417855
914	0.2855747965
915	0.2855077055
916	0.2854402594
917	0.285380822
918	0.2852589716
919	0.2851526034
920	0.2850712376
921	0.2850075252
922	0.284889703
923	0.2848173381
924	0.2847128796
925	0.2846354373
926	0.2845897438
927	0.2845205877
928	0.2844528012
929	0.2844058844
930	0.2842721663
931	0.2841709802
932	0.2840701933
933	0.283853497
934	0.2837161555
935	0.2836525447
936	0.2835303632
937	0.2834874435
938	0.2834748947
939	0.2834290528
940	0.2833164124
941	0.2831119676
942	0.283053692
943	0.2829896607
944	0.2828849789
945	0.2827846353
946	0.282727883
947	0.2826619427
948	0.2825362215
949	0.2824268359
950	0.2823229661
951	0.2822473022
952	0.2822057053
953	0.2821497491
954	0.2820419149
955	0.2819985683
956	0.281931389
957	0.2818890741
958	0.2818197246
959	0.2816619274
960	0.2815760473
961	0.2813669393
962	0.2813592534
963	0.2812364529
964	0.2811255188
965	0.281030841
966	0.2810078611
967	0.2809120323
968	0.2808343618
969	0.2807432791
970	0.2806355611
971	0.2804944631
972	0.2804628894
973	0.2804130663
974	0.2803687381
975	0.280345029
976	0.2802459737
977	0.2800225434
978	0.2799712537
979	0.2799212718
980	0.2798465276
981	0.2796639493
982	0.2796156876
983	0.2795563979
984	0.2795155866
985	0.2794671755
986	0.2793715389
987	0.2791177664
988	0.279019457
989	0.2787280999
990	0.2786395491
991	0.2786108631
992	0.2784888838
993	0.2783948929
994	0.2783297108
995	0.2782541259
996	0.2780406399
997	0.2779821793
998	0.2778795896
999	0.2777981096
