iter	Passed	Remaining
0	2	2065
1	18	9111
2	20	6659
3	34	8479
4	35	7098
5	37	6174
6	38	5492
7	40	5022
8	49	5458
9	65	6463
10	66	6015
11	80	6664
12	82	6261
13	83	5912
14	96	6353
15	98	6036
16	99	5763
17	101	5519
18	102	5298
19	103	5085
20	105	4902
21	106	4739
22	108	4592
23	109	4453
24	110	4327
25	126	4752
26	128	4622
27	129	4501
28	131	4396
29	141	4589
30	143	4485
31	145	4389
32	146	4299
33	148	4215
34	149	4131
35	151	4055
36	153	3982
37	154	3898
38	155	3832
39	157	3772
40	158	3711
41	160	3652
42	172	3846
43	174	3788
44	175	3731
45	177	3677
46	178	3618
47	179	3568
48	181	3525
49	183	3479
50	184	3437
51	186	3395
52	187	3354
53	189	3316
54	190	3278
55	192	3241
56	193	3206
57	203	3303
58	205	3270
59	206	3237
60	208	3205
61	209	3173
62	211	3144
63	212	3113
64	217	3125
65	218	3098
66	220	3070
67	222	3043
68	223	3020
69	225	2995
70	226	2969
71	228	2946
72	230	2923
73	232	2903
74	247	3053
75	249	3028
76	262	3147
77	264	3123
78	265	3100
79	267	3076
80	268	3050
81	270	3026
82	271	2998
83	272	2976
84	274	2951
85	276	2936
86	278	2918
87	279	2898
88	281	2878
89	282	2858
90	284	2839
91	293	2893
92	294	2873
93	296	2855
94	297	2837
95	299	2820
96	301	2802
97	302	2785
98	304	2768
99	305	2751
100	307	2735
101	309	2721
102	310	2706
103	312	2691
104	313	2675
105	315	2661
106	317	2648
107	318	2633
108	320	2619
109	321	2605
110	323	2593
111	325	2580
112	326	2562
113	327	2548
114	329	2536
115	331	2523
116	332	2511
117	334	2498
118	335	2485
119	337	2473
120	338	2462
121	340	2451
122	342	2441
123	344	2430
124	345	2420
125	347	2409
126	348	2398
127	350	2388
128	352	2377
129	353	2367
130	355	2357
131	357	2348
132	358	2339
133	360	2330
134	362	2320
135	363	2311
136	365	2301
137	366	2291
138	368	2282
139	369	2269
140	370	2259
141	372	2251
142	374	2243
143	375	2234
144	377	2226
145	379	2217
146	380	2209
147	385	2216
148	386	2208
149	388	2200
150	389	2192
151	391	2184
152	393	2176
153	394	2168
154	396	2160
155	397	2152
156	415	2230
157	417	2222
158	418	2214
159	420	2205
160	421	2198
161	423	2190
162	429	2207
163	462	2356
164	477	2418
165	479	2408
166	480	2399
167	482	2389
168	484	2380
169	485	2372
170	487	2364
171	488	2353
172	490	2344
173	492	2336
174	493	2328
175	495	2319
176	508	2366
177	510	2357
178	512	2348
179	524	2389
180	526	2380
181	527	2371
182	529	2363
183	530	2354
184	532	2345
185	534	2337
186	535	2329
187	537	2321
188	555	2384
189	557	2375
190	571	2421
191	573	2412
192	574	2403
193	576	2394
194	577	2385
195	579	2376
196	581	2368
197	603	2444
198	604	2434
199	606	2426
200	619	2460
201	620	2452
202	622	2443
203	624	2435
204	634	2462
205	650	2507
206	666	2551
207	667	2542
208	669	2533
209	670	2523
210	672	2513
211	673	2503
212	674	2493
213	676	2484
214	677	2474
215	679	2465
216	680	2456
217	682	2447
218	683	2436
219	684	2426
220	697	2457
221	698	2446
222	699	2438
223	713	2470
224	714	2461
225	716	2452
226	717	2443
227	728	2467
228	730	2458
229	731	2449
230	733	2440
231	734	2432
232	744	2450
233	760	2489
234	761	2479
235	775	2510
236	790	2546
237	806	2582
238	808	2573
239	809	2563
240	810	2553
241	812	2544
242	813	2535
243	815	2526
244	816	2516
245	822	2519
246	853	2601
247	855	2593
248	857	2584
249	858	2574
250	859	2565
251	867	2576
252	869	2567
253	870	2557
254	872	2548
255	883	2567
256	899	2600
257	900	2591
258	901	2579
259	903	2571
260	915	2591
261	931	2622
262	932	2613
263	947	2640
264	962	2669
265	964	2660
266	965	2651
267	967	2642
268	968	2632
269	970	2623
270	971	2614
271	973	2604
272	974	2595
273	976	2586
274	993	2620
275	995	2611
276	997	2603
277	999	2594
278	1009	2608
279	1010	2599
280	1012	2591
281	1014	2582
282	1015	2573
283	1017	2564
284	1018	2555
285	1019	2546
286	1021	2537
287	1022	2528
288	1024	2520
289	1039	2543
290	1040	2534
291	1053	2554
292	1055	2546
293	1056	2537
294	1069	2555
295	1100	2618
296	1103	2611
297	1104	2602
298	1116	2617
299	1118	2609
300	1147	2664
301	1162	2685
302	1163	2677
303	1177	2696
304	1179	2688
305	1181	2679
306	1193	2694
307	1208	2715
308	1210	2706
309	1223	2723
310	1225	2714
311	1226	2705
312	1228	2696
313	1239	2708
314	1240	2698
315	1242	2689
316	1244	2680
317	1245	2671
318	1246	2661
319	1248	2652
320	1249	2643
321	1251	2634
322	1252	2625
323	1253	2616
324	1255	2607
325	1271	2627
326	1286	2648
327	1288	2639
328	1301	2654
329	1316	2672
330	1318	2664
331	1319	2655
332	1321	2646
333	1322	2637
334	1324	2628
335	1325	2619
336	1327	2610
337	1328	2601
338	1329	2593
339	1331	2584
340	1332	2575
341	1334	2566
342	1335	2558
343	1336	2549
344	1338	2541
345	1339	2532
346	1341	2524
347	1343	2516
348	1344	2507
349	1345	2499
350	1347	2491
351	1362	2509
352	1378	2526
353	1394	2544
354	1395	2535
355	1397	2527
356	1398	2519
357	1399	2509
358	1409	2515
359	1410	2507
360	1411	2499
361	1413	2490
362	1414	2482
363	1416	2474
364	1424	2477
365	1425	2469
366	1440	2483
367	1456	2500
368	1471	2515
369	1472	2507
370	1474	2499
371	1475	2491
372	1477	2483
373	1478	2475
374	1487	2479
375	1489	2471
376	1490	2463
377	1492	2455
378	1503	2463
379	1504	2455
380	1519	2468
381	1520	2460
382	1522	2452
383	1523	2443
384	1524	2435
385	1526	2427
386	1527	2419
387	1528	2411
388	1529	2402
389	1531	2394
390	1532	2387
391	1550	2404
392	1565	2418
393	1567	2410
394	1568	2402
395	1569	2394
396	1571	2386
397	1572	2378
398	1574	2371
399	1575	2363
400	1576	2355
401	1578	2347
402	1579	2340
403	1581	2333
404	1582	2325
405	1584	2317
406	1585	2310
407	1587	2303
408	1588	2295
409	1590	2288
410	1591	2281
411	1593	2273
412	1594	2266
413	1595	2258
414	1596	2250
415	1610	2260
416	1611	2253
417	1613	2246
418	1614	2238
419	1616	2231
420	1617	2224
421	1619	2217
422	1620	2210
423	1622	2203
424	1623	2196
425	1625	2189
426	1627	2183
427	1629	2177
428	1640	2183
429	1641	2176
430	1656	2186
431	1672	2198
432	1673	2191
433	1675	2184
434	1676	2177
435	1677	2169
436	1678	2162
437	1680	2155
438	1681	2148
439	1683	2142
440	1684	2135
441	1687	2130
442	1703	2142
443	1705	2135
444	1719	2144
445	1720	2137
446	1721	2129
447	1722	2122
448	1724	2115
449	1725	2109
450	1726	2102
451	1728	2095
452	1729	2088
453	1731	2081
454	1732	2075
455	1750	2088
456	1752	2082
457	1753	2075
458	1755	2069
459	1766	2073
460	1768	2067
461	1769	2060
462	1770	2053
463	1772	2047
464	1773	2040
465	1775	2034
466	1776	2027
467	1778	2021
468	1779	2014
469	1781	2008
470	1782	2002
471	1784	1995
472	1785	1989
473	1787	1983
474	1788	1976
475	1789	1970
476	1791	1964
477	1792	1957
478	1794	1951
479	1795	1945
480	1813	1956
481	1829	1965
482	1830	1959
483	1844	1966
484	1846	1960
485	1848	1954
486	1860	1960
487	1862	1953
488	1863	1947
489	1876	1953
490	1877	1946
491	1879	1940
492	1880	1934
493	1882	1928
494	1892	1930
495	1893	1924
496	1895	1918
497	1896	1912
498	1898	1906
499	1899	1899
500	1901	1893
501	1902	1887
502	1904	1881
503	1904	1874
504	1906	1868
505	1907	1862
506	1909	1856
507	1910	1850
508	1922	1854
509	1924	1848
510	1925	1842
511	1927	1836
512	1928	1830
513	1930	1825
514	1931	1819
515	1933	1813
516	1937	1810
517	1939	1804
518	1940	1798
519	1941	1792
520	1942	1786
521	1944	1780
522	1946	1774
523	1947	1769
524	1948	1762
525	1949	1756
526	1952	1752
527	1954	1746
528	1955	1741
529	1956	1735
530	1958	1729
531	1959	1723
532	1961	1718
533	1963	1713
534	1968	1711
535	1970	1705
536	1971	1699
537	1973	1694
538	1974	1688
539	1975	1683
540	1977	1677
541	1978	1672
542	1984	1669
543	1985	1664
544	1987	1658
545	1988	1653
546	1999	1656
547	2015	1662
548	2017	1657
549	2019	1652
550	2021	1646
551	2022	1641
552	2023	1635
553	2025	1630
554	2027	1625
555	2028	1620
556	2030	1614
557	2031	1609
558	2033	1604
559	2034	1598
560	2036	1593
561	2046	1595
562	2062	1601
563	2078	1607
564	2080	1601
565	2082	1596
566	2083	1591
567	2084	1585
568	2086	1580
569	2087	1575
570	2089	1569
571	2090	1564
572	2092	1559
573	2094	1554
574	2095	1548
575	2096	1543
576	2097	1538
577	2099	1532
578	2100	1527
579	2102	1522
580	2103	1517
581	2105	1511
582	2106	1506
583	2108	1501
584	2109	1496
585	2111	1491
586	2112	1486
587	2114	1481
588	2115	1476
589	2117	1471
590	2118	1466
591	2119	1460
592	2121	1455
593	2122	1450
594	2124	1446
595	2125	1440
596	2127	1435
597	2128	1430
598	2130	1425
599	2131	1421
600	2132	1416
601	2134	1410
602	2135	1405
603	2136	1400
604	2137	1395
605	2139	1390
606	2140	1386
607	2142	1381
608	2155	1384
609	2157	1379
610	2171	1382
611	2173	1377
612	2187	1381
613	2189	1376
614	2190	1371
615	2203	1373
616	2205	1368
617	2206	1364
618	2208	1359
619	2209	1354
620	2211	1349
621	2212	1344
622	2213	1339
623	2218	1337
624	2233	1340
625	2249	1343
626	2264	1347
627	2266	1342
628	2267	1337
629	2269	1332
630	2296	1343
631	2298	1338
632	2299	1333
633	2312	1334
634	2313	1330
635	2315	1325
636	2316	1320
637	2328	1320
638	2329	1316
639	2343	1317
640	2357	1320
641	2359	1315
642	2360	1310
643	2362	1305
644	2372	1305
645	2374	1301
646	2388	1303
647	2389	1298
648	2403	1299
649	2405	1295
650	2418	1296
651	2420	1291
652	2421	1286
653	2423	1282
654	2424	1277
655	2426	1272
656	2427	1267
657	2428	1262
658	2430	1257
659	2431	1252
660	2433	1247
661	2434	1243
662	2435	1237
663	2436	1233
664	2438	1228
665	2439	1223
666	2441	1218
667	2442	1213
668	2444	1209
669	2445	1204
670	2446	1199
671	2448	1194
672	2449	1190
673	2451	1185
674	2452	1180
675	2465	1181
676	2467	1177
677	2468	1172
678	2481	1173
679	2482	1168
680	2484	1163
681	2485	1159
682	2487	1154
683	2488	1149
684	2490	1145
685	2491	1140
686	2493	1135
687	2494	1131
688	2496	1126
689	2497	1122
690	2498	1117
691	2500	1112
692	2501	1108
693	2503	1103
694	2504	1099
695	2506	1094
696	2507	1090
697	2509	1085
698	2510	1081
699	2511	1076
700	2513	1072
701	2527	1072
702	2542	1073
703	2543	1069
704	2557	1070
705	2559	1065
706	2560	1061
707	2562	1056
708	2563	1052
709	2565	1047
710	2566	1043
711	2573	1040
712	2575	1036
713	2576	1032
714	2577	1027
715	2579	1023
716	2580	1018
717	2582	1014
718	2589	1011
719	2605	1013
720	2606	1008
721	2607	1004
722	2609	999
723	2620	999
724	2622	994
725	2623	990
726	2625	985
727	2626	981
728	2627	976
729	2629	972
730	2630	968
731	2632	963
732	2633	959
733	2635	955
734	2636	950
735	2638	946
736	2639	941
737	2640	937
738	2641	932
739	2649	930
740	2650	926
741	2652	922
742	2664	921
743	2666	917
744	2667	913
745	2680	912
746	2681	908
747	2695	908
748	2711	908
749	2713	904
750	2714	900
751	2727	899
752	2742	899
753	2758	899
754	2759	895
755	2761	891
756	2762	886
757	2772	885
758	2774	880
759	2775	876
760	2788	875
761	2804	875
762	2805	871
763	2820	871
764	2836	871
765	2837	866
766	2852	866
767	2853	862
768	2855	857
769	2856	853
770	2858	848
771	2867	846
772	2883	846
773	2884	842
774	2898	841
775	2899	837
776	2901	832
777	2902	828
778	2904	823
779	2905	819
780	2906	815
781	2908	810
782	2909	806
783	2911	802
784	2913	797
785	2914	793
786	2928	792
787	2944	792
788	2947	788
789	2949	783
790	2960	782
791	2962	777
792	2963	773
793	2965	769
794	2966	764
795	2975	762
796	2977	758
797	2979	754
798	2991	752
799	2993	748
800	2995	744
801	2996	739
802	2998	735
803	2999	731
804	3000	726
805	3002	722
806	3003	718
807	3005	714
808	3006	709
809	3023	709
810	3024	704
811	3026	700
812	3027	696
813	3029	692
814	3030	687
815	3032	683
816	3033	679
817	3037	675
818	3053	674
819	3068	673
820	3070	669
821	3071	665
822	3073	660
823	3074	656
824	3084	654
825	3085	650
826	3087	645
827	3088	641
828	3089	637
829	3091	633
830	3093	629
831	3094	624
832	3095	620
833	3097	616
834	3098	612
835	3100	608
836	3101	604
837	3103	599
838	3104	595
839	3106	591
840	3107	587
841	3109	583
842	3111	579
843	3112	575
844	3114	571
845	3116	567
846	3117	563
847	3119	559
848	3120	555
849	3130	552
850	3131	548
851	3133	544
852	3134	540
853	3136	536
854	3137	532
855	3138	528
856	3140	524
857	3142	520
858	3143	515
859	3144	511
860	3146	507
861	3147	503
862	3149	499
863	3150	495
864	3152	491
865	3153	487
866	3154	483
867	3156	480
868	3157	476
869	3159	472
870	3160	468
871	3162	464
872	3163	460
873	3165	456
874	3176	453
875	3191	451
876	3193	447
877	3194	443
878	3196	439
879	3197	436
880	3198	432
881	3200	428
882	3201	424
883	3202	420
884	3204	416
885	3207	412
886	3208	408
887	3210	404
888	3211	400
889	3212	397
890	3214	393
891	3215	389
892	3216	385
893	3218	381
894	3219	377
895	3221	373
896	3222	370
897	3224	366
898	3225	362
899	3227	358
900	3228	354
901	3238	351
902	3239	348
903	3240	344
904	3242	340
905	3243	336
906	3245	332
907	3246	328
908	3248	325
909	3249	321
910	3250	317
911	3252	313
912	3269	311
913	3271	307
914	3272	304
915	3273	300
916	3275	296
917	3276	292
918	3278	288
919	3279	285
920	3281	281
921	3282	277
922	3284	273
923	3285	270
924	3287	266
925	3288	262
926	3289	259
927	3291	255
928	3292	251
929	3294	247
930	3295	244
931	3296	240
932	3298	236
933	3299	233
934	3301	229
935	3316	226
936	3332	224
937	3333	220
938	3335	216
939	3336	212
940	3337	209
941	3339	205
942	3340	201
943	3342	198
944	3343	194
945	3345	190
946	3346	187
947	3348	183
948	3349	180
949	3351	176
950	3352	172
951	3354	169
952	3355	165
953	3356	161
954	3358	158
955	3359	154
956	3361	151
957	3362	147
958	3363	143
959	3365	140
960	3366	136
961	3378	133
962	3379	129
963	3381	126
964	3382	122
965	3384	119
966	3385	115
967	3387	111
968	3388	108
969	3389	104
970	3391	101
971	3409	98
972	3410	94
973	3424	91
974	3426	87
975	3427	84
976	3428	80
977	3429	77
978	3431	73
979	3433	70
980	3434	66
981	3435	62
982	3437	59
983	3438	55
984	3455	52
985	3456	49
986	3470	45
987	3472	42
988	3486	38
989	3502	35
990	3504	31
991	3505	28
992	3506	24
993	3508	21
994	3510	17
995	3511	14
996	3513	10
997	3517	7
998	3518	3
999	3520	0
